// Trending Movies
{
  "page": 1,
  "results": [
    {
      "backdrop_path": "/m6GbPD59FZlwqb1vH3exXBsHB6r.jpg",
      "id": 1079091,
      "title": "It Ends with Us",
      "original_title": "It Ends with Us",
      "overview": "When a woman's first love suddenly reenters her life, her relationship with a charming,but abusive neurosurgeon is upended,and she realizes she must learn to rely on her own strength to make an impossible choice for her future.",
      "poster_path": "/4TzwDWpLmb9bWJjlN3iBUdvgarw.jpg",
      "media_type": "movie",
      "adult": false,
      "original_language": "en",
      "genre_ids": [10749, 18],
      "popularity": 1076.292,
      "release_date": "2024-08-07",
      "video": false,
      "vote_average": 6.834,
      "vote_count": 356
    }
  ],
  "total_pages": 1000,
  "total_results": 20000
}


// Top Rated Movies  
{"page": 1, 
"results":[
  {
    "adult": false,
    "backdrop_path": "/kXfqcdQKsToO0OUXHcrrNCHDBzO.jpg",
    "genre_ids": [18, 80],
    "id": 278,
    "original_language": "en",
    "original_title": "The Shawshank Redemption",
    "overview": "Imprisoned in the 1940s for the double murder of his wife and her lover, upstanding banker Andy Dufresne begins a new life at the Shawshank prison, where he puts his accounting skills to work for an amoral warden. During his long stretch in prison, Dufresne comes to be admired by the other inmates -- including an older prisoner named Red -- for his integrity and unquenchable sense of hope.",
    "popularity": 204.296,
    "poster_path": "/9cqNxx0GxF0bflZmeSMuL5tnGzr.jpg",
    "release_date": "1994-09-23",
    "title": "The Shawshank Redemption",
    "video": false,
    "vote_average": 8.706,
    "vote_count": 26843
  }
],
"total_pages": 482, 
"total_results": 9630
}




//TV Shows
{
  "page": 1, 
  "results":[
    {
    "adult": false,
    "backdrop_path": "/gMMnf8VRg3Z98WaFmOLr9Jk8pIs.jpg", 
    "genre_ids": [35, 10767], 
    "id": 63770, 
    "origin_country": ["US"], 
    "original_language": "en", 
    "original_name": "The Late Show with Stephen Colbert", 
    "overview": "Stephen Colbert brings his signature satire and comedy to The Late Show with Stephen Colbert, the #1 show in late night, where he talks with an eclectic mix of guests about what is new and relevant in the worlds of politics, entertainment, business, music, technology, and more. Featuring bandleader Jon Batiste with his band Stay Human, the Emmy Award-nominated show is broadcast from the historic Ed Sullivan Theater. Stephen Colbert, Chris Licht, Tom Purcell, and Jon Stewart are executive producers. Barry Julien and Denise Rehrig serve as co-executive producers.must watch", 
    "popularity": 2882.005, 
    "poster_path": "/9jkThAGYj2yp8jsS6Nriy5mzKFT.jpg", 
    "first_air_date": "2015-09-08", 
    "name": "The Late Show with Stephen Colbert", 
    "vote_average": 6.554, 
    "vote_count": 267 
}
], 
"total_pages": 9075, 
"total_results": 181500
}


